{
	"showcasefile" : "C:\\Users\\sankkri\\git\\log_ml\\log_ml\\nasa_access_log_Aug95",
	"trainingfile" : "C:\\Users\\sankkri\\git\\log_ml\\log_ml\\nasa_access_log_Jul95",
	"period" :"1",
	"shift":"1"
	
}